﻿
DisplayName "Ilias Temple"



EVENT   1
 PAGE   1
  If(1,1001,0,5,0)
   ShowMessageFace("ruka_fc1",0,0,2,1)
   ShowMessage("\\n<Luka>I don't have time to go back to the village. If I'm any later, Sonya will kill me.")
   205(-1,bytes(0x04,0x08,0x6f,0x3a,0x13,0x52,0x50,0x47,0x3a,0x3a,0x4d,0x6f,0x76,0x65,0x52,0x6f,0x75,0x74,0x65,0x09,0x3a,0x0c,0x40,0x72,0x65,0x70,0x65,0x61,0x74,0x46,0x3a,0x0f,0x40,0x73,0x6b,0x69,0x70,0x70,0x61,0x62,0x6c,0x65,0x46,0x3a,0x0a,0x40,0x77,0x61,0x69,0x74,0x54,0x3a,0x0a,0x40,0x6c,0x69,0x73,0x74,0x5b,0x07,0x6f,0x3a,0x15,0x52,0x50,0x47,0x3a,0x3a,0x4d,0x6f,0x76,0x65,0x43,0x6f,0x6d,0x6d,0x61,0x6e,0x64,0x07,0x3a,0x0a,0x40,0x63,0x6f,0x64,0x65,0x69,0x09,0x3a,0x10,0x40,0x70,0x61,0x72,0x61,0x6d,0x65,0x74,0x65,0x72,0x73,0x5b,0x00,0x6f,0x3b,0x0a,0x07,0x3b,0x0b,0x69,0x00,0x3b,0x0c,0x5b,0x00))
   EndEventProcessing()
   0()
  EndIf()
  281(0)
  250(bytes(0x04,0x08,0x6f,0x3a,0x0c,0x52,0x50,0x47,0x3a,0x3a,0x53,0x45,0x08,0x3a,0x0a,0x40,0x6e,0x61,0x6d,0x65,0x49,0x22,0x09,0x4d,0x6f,0x76,0x65,0x06,0x3a,0x06,0x45,0x54,0x3a,0x0b,0x40,0x70,0x69,0x74,0x63,0x68,0x69,0x69,0x3a,0x0c,0x40,0x76,0x6f,0x6c,0x75,0x6d,0x65,0x69,0x55))
  TeleportPlayer(0,7,19,1,0,0)
  0()



EVENT   2
 PAGE   1
  If(1,1001,0,5,0)
   ShowMessageFace("ruka_fc1",0,0,2,1)
   ShowMessage("\\n<Luka>I don't have time to leave and come back. I don't want to find out what Sonya will do to me if I'm any later...")
   205(-1,bytes(0x04,0x08,0x6f,0x3a,0x13,0x52,0x50,0x47,0x3a,0x3a,0x4d,0x6f,0x76,0x65,0x52,0x6f,0x75,0x74,0x65,0x09,0x3a,0x0c,0x40,0x72,0x65,0x70,0x65,0x61,0x74,0x46,0x3a,0x0f,0x40,0x73,0x6b,0x69,0x70,0x70,0x61,0x62,0x6c,0x65,0x46,0x3a,0x0a,0x40,0x77,0x61,0x69,0x74,0x54,0x3a,0x0a,0x40,0x6c,0x69,0x73,0x74,0x5b,0x07,0x6f,0x3a,0x15,0x52,0x50,0x47,0x3a,0x3a,0x4d,0x6f,0x76,0x65,0x43,0x6f,0x6d,0x6d,0x61,0x6e,0x64,0x07,0x3a,0x0a,0x40,0x63,0x6f,0x64,0x65,0x69,0x09,0x3a,0x10,0x40,0x70,0x61,0x72,0x61,0x6d,0x65,0x74,0x65,0x72,0x73,0x5b,0x00,0x6f,0x3b,0x0a,0x07,0x3b,0x0b,0x69,0x00,0x3b,0x0c,0x5b,0x00))
   EndEventProcessing()
   0()
  EndIf()
  281(0)
  250(bytes(0x04,0x08,0x6f,0x3a,0x0c,0x52,0x50,0x47,0x3a,0x3a,0x53,0x45,0x08,0x3a,0x0a,0x40,0x6e,0x61,0x6d,0x65,0x49,0x22,0x09,0x4d,0x6f,0x76,0x65,0x06,0x3a,0x06,0x45,0x54,0x3a,0x0b,0x40,0x70,0x69,0x74,0x63,0x68,0x69,0x69,0x3a,0x0c,0x40,0x76,0x6f,0x6c,0x75,0x6d,0x65,0x69,0x55))
  TeleportPlayer(0,7,19,1,0,0)
  0()



EVENT   3
 PAGE   1
  If(1,1001,0,5,0)
   ShowMessageFace("ruka_fc1",0,0,2,1)
   ShowMessage("\\n<Luka>I don't have time to leave and come back. I don't want to find out what Sonya will do to me if I'm any later...")
   205(-1,bytes(0x04,0x08,0x6f,0x3a,0x13,0x52,0x50,0x47,0x3a,0x3a,0x4d,0x6f,0x76,0x65,0x52,0x6f,0x75,0x74,0x65,0x09,0x3a,0x0c,0x40,0x72,0x65,0x70,0x65,0x61,0x74,0x46,0x3a,0x0f,0x40,0x73,0x6b,0x69,0x70,0x70,0x61,0x62,0x6c,0x65,0x46,0x3a,0x0a,0x40,0x77,0x61,0x69,0x74,0x54,0x3a,0x0a,0x40,0x6c,0x69,0x73,0x74,0x5b,0x07,0x6f,0x3a,0x15,0x52,0x50,0x47,0x3a,0x3a,0x4d,0x6f,0x76,0x65,0x43,0x6f,0x6d,0x6d,0x61,0x6e,0x64,0x07,0x3a,0x0a,0x40,0x63,0x6f,0x64,0x65,0x69,0x09,0x3a,0x10,0x40,0x70,0x61,0x72,0x61,0x6d,0x65,0x74,0x65,0x72,0x73,0x5b,0x00,0x6f,0x3b,0x0a,0x07,0x3b,0x0b,0x69,0x00,0x3b,0x0c,0x5b,0x00))
   EndEventProcessing()
   0()
  EndIf()
  281(0)
  250(bytes(0x04,0x08,0x6f,0x3a,0x0c,0x52,0x50,0x47,0x3a,0x3a,0x53,0x45,0x08,0x3a,0x0a,0x40,0x6e,0x61,0x6d,0x65,0x49,0x22,0x09,0x4d,0x6f,0x76,0x65,0x06,0x3a,0x06,0x45,0x54,0x3a,0x0b,0x40,0x70,0x69,0x74,0x63,0x68,0x69,0x69,0x3a,0x0c,0x40,0x76,0x6f,0x6c,0x75,0x6d,0x65,0x69,0x55))
  TeleportPlayer(0,7,20,1,0,0)
  0()



EVENT   4
 PAGE   1
  281(0)
  250(bytes(0x04,0x08,0x6f,0x3a,0x0c,0x52,0x50,0x47,0x3a,0x3a,0x53,0x45,0x08,0x3a,0x0a,0x40,0x6e,0x61,0x6d,0x65,0x49,0x22,0x09,0x4d,0x6f,0x76,0x65,0x06,0x3a,0x06,0x45,0x54,0x3a,0x0b,0x40,0x70,0x69,0x74,0x63,0x68,0x69,0x69,0x3a,0x0c,0x40,0x76,0x6f,0x6c,0x75,0x6d,0x65,0x69,0x55))
  TeleportPlayer(0,5,24,30,0,0)
  0()



EVENT   5
 PAGE   1
  281(0)
  250(bytes(0x04,0x08,0x6f,0x3a,0x0c,0x52,0x50,0x47,0x3a,0x3a,0x53,0x45,0x08,0x3a,0x0a,0x40,0x6e,0x61,0x6d,0x65,0x49,0x22,0x09,0x4d,0x6f,0x76,0x65,0x06,0x3a,0x06,0x45,0x54,0x3a,0x0b,0x40,0x70,0x69,0x74,0x63,0x68,0x69,0x69,0x3a,0x0c,0x40,0x76,0x6f,0x6c,0x75,0x6d,0x65,0x69,0x55))
  TeleportPlayer(0,5,24,30,0,0)
  0()



EVENT   6
 PAGE   1
  281(0)
  250(bytes(0x04,0x08,0x6f,0x3a,0x0c,0x52,0x50,0x47,0x3a,0x3a,0x53,0x45,0x08,0x3a,0x0a,0x40,0x6e,0x61,0x6d,0x65,0x49,0x22,0x09,0x4d,0x6f,0x76,0x65,0x06,0x3a,0x06,0x45,0x54,0x3a,0x0b,0x40,0x70,0x69,0x74,0x63,0x68,0x69,0x69,0x3a,0x0c,0x40,0x76,0x6f,0x6c,0x75,0x6d,0x65,0x69,0x55))
  TeleportPlayer(0,5,24,30,0,0)
  0()



EVENT   7
 PAGE   1
  ShowMessageFace("",0,0,2,1)
  ShowMessage("\\n<Guard>This is Ilias Temple. Besides being able to change your job here, you can get advice on your adventure.")
  0()



EVENT   8
 PAGE   1
  If(1,1001,0,5,0)
   ShowMessageFace("",0,0,2,1)
   ShowMessage("\\n<Guard>Here to pray as usual, Luka? You're an inspiration to us all.")
   ShowMessageFace("",0,0,2,2)
   ShowMessage("\\n<Guard>...oh yeah, your adventure starts today, doesn't it? I suppose you're still going to have to come back here every time you want to change your job though.")
   EndEventProcessing()
   0()
  EndIf()
  If(1,1001,0,12,2)
   ShowMessageFace("",0,0,2,3)
   ShowMessage("\\n<Guard>Here to change your job, Luka? It looks like you're coming along well.")
   EndEventProcessing()
   0()
  EndIf()
  If(1,1001,0,29,2)
   ShowMessageFace("",0,0,2,4)
   ShowMessage("\\n<Guard>It looks like you've gotten a lot stronger. You're putting the rest of us around here to shame, that's for sure.")
   EndEventProcessing()
   0()
  EndIf()
  If(1,1001,0,30,1)
   ShowMessageFace("",0,0,2,5)
   ShowMessage("【兵士】")
   ShowMessage("いつの間にやら、すっかり世界の勇者だな。")
   ShowMessage("遠い存在になったもんだぜ……")
   EndEventProcessing()
   0()
  EndIf()
  0()



EVENT   9
 PAGE   1
  ShowMessageFace("",0,0,2,1)
  ShowMessage("\\n<Girl>I want to be a maid when I grow up. ♪")
  355("actor_label_jump")
  EndEventProcessing()
  DefineLabel("64")
  ShowMessageFace("pramia_fc1",0,0,2,2)
  ShowMessage("\\n<Teeny>I'm going to be a super maid too! ♪")
  EndEventProcessing()
  DefineLabel("282")
  ShowMessageFace("maycubbus_fc1",1,0,2,3)
  ShowMessage("【メイ】")
  ShowMessage("メイドになって、何をするつもりなのやら。")
  ShowMessage("いやらしい子……")
  EndEventProcessing()
  DefineLabel("289")
  ShowMessageFace("maidscyulla_fc1",1,0,2,4)
  ShowMessage("【ラン】")
  ShowMessage("うふふっ、がんばって下さいね。")
  EndEventProcessing()
  DefineLabel("351")
  ShowMessageFace("scylla_s_fc1",0,0,2,5)
  ShowMessage("【セシール】")
  ShowMessage("メイドの道は険しいですが……")
  ShowMessage("奉仕の心を失わなければ、必ず立派なメイドになれますよ。")
  EndEventProcessing()
  0()



EVENT   10
 PAGE   1
  ShowMessageFace("",0,0,2,1)
  ShowMessage("\\n<Slime Girl>Waaah! I want to be a mage♪ Purupuru♪　Purupuru♪")
  355("actor_label_jump")
  EndEventProcessing()
  DefineLabel("233")
  ShowMessageFace("mefist_fc1",0,0,2,2)
  ShowMessage("【メフィスト】")
  ShowMessage("それでは、うちの魔導学校に入りませんか？")
  ShowMessage("今なら入学費が10%お得ですよ……")
  EndEventProcessing()
  DefineLabel("391")
  ShowMessageFace("mefist_fc2",0,0,2,3)
  ShowMessage("【メフィスト】")
  ShowMessage("それでは、うちの魔導学校に入りませんか？")
  ShowMessage("今なら入学費が10%お得ですよ……")
  EndEventProcessing()
  DefineLabel("286")
  ShowMessageFace("witchs_fc1",1,0,2,4)
  ShowMessage("【ウィッチ】")
  ShowMessage("うふっ……がんばってね♪")
  EndEventProcessing()
  0()



EVENT   11
 PAGE   1
  ShowMessageFace("",0,0,2,1)
  ShowMessage("\\n<Old Man>You can change your job here at Ilias Temple. That's why people from all over the world flock here...")
  ShowMessageFace("",0,0,2,2)
  ShowMessage("\\n<Old Man>Although lately, far fewer than normal have been arriving. I wonder if most have finally found a job they like?")
  If(1,1001,0,5,0)
   ShowMessageFace("",0,0,2,3)
   ShowMessage("\\n<Old Man>Luka, go get baptized. I'm sure you'll make a fine adventurer.")
   0()
  EndIf()
  0()



EVENT   12
 PAGE   1
  ShowMessageFace("",0,0,2,1)
  ShowMessage("\\n<Sister>As of today, I'm retiring from the priesthood. I wonder if I should give being a gadabout a try...")
  0()
 PAGE   2
  // condition: variable 1001 >= 6
  ShowMessageFace("",0,0,2,1)
  ShowMessage("\\n<Former Sister>Aah, this is the life of a gadabout! I'm going to make up for all the lost time I didn't spend enjoying myself!")
  0()
 PAGE   3
  // condition: variable 1001 >= 13
  ShowMessageFace("",0,0,2,1)
  ShowMessage("\\n<Former Gadabout>Playing around all the time got kinda tiring. From now on I'm going to be a maid and serve others.")
  0()
 PAGE   4
  // condition: variable 1001 >= 30
  ShowMessageFace("",0,0,2,1)
  ShowMessage("【元メイド】")
  ShowMessage("メイドとして働き、小さなメダルを集め……")
  ShowMessage("とうとう、貴族の位に就いたわ！")
  0()



EVENT   13
 PAGE   1
  If(1,1001,0,5,0)
   ShowMessageFace("ruka_fc1",0,0,2,1)
   ShowMessage("\\n<Luka>I don't have time to leave and come back. I don't want to find out what Sonya will do to me if I'm any later...")
   205(-1,bytes(0x04,0x08,0x6f,0x3a,0x13,0x52,0x50,0x47,0x3a,0x3a,0x4d,0x6f,0x76,0x65,0x52,0x6f,0x75,0x74,0x65,0x09,0x3a,0x0c,0x40,0x72,0x65,0x70,0x65,0x61,0x74,0x46,0x3a,0x0f,0x40,0x73,0x6b,0x69,0x70,0x70,0x61,0x62,0x6c,0x65,0x46,0x3a,0x0a,0x40,0x77,0x61,0x69,0x74,0x54,0x3a,0x0a,0x40,0x6c,0x69,0x73,0x74,0x5b,0x07,0x6f,0x3a,0x15,0x52,0x50,0x47,0x3a,0x3a,0x4d,0x6f,0x76,0x65,0x43,0x6f,0x6d,0x6d,0x61,0x6e,0x64,0x07,0x3a,0x0a,0x40,0x63,0x6f,0x64,0x65,0x69,0x07,0x3a,0x10,0x40,0x70,0x61,0x72,0x61,0x6d,0x65,0x74,0x65,0x72,0x73,0x5b,0x00,0x6f,0x3b,0x0a,0x07,0x3b,0x0b,0x69,0x00,0x3b,0x0c,0x5b,0x00))
   EndEventProcessing()
   0()
  EndIf()
  250(bytes(0x04,0x08,0x6f,0x3a,0x0c,0x52,0x50,0x47,0x3a,0x3a,0x53,0x45,0x08,0x3a,0x0a,0x40,0x6e,0x61,0x6d,0x65,0x49,0x22,0x09,0x4d,0x6f,0x76,0x65,0x06,0x3a,0x06,0x45,0x54,0x3a,0x0b,0x40,0x70,0x69,0x74,0x63,0x68,0x69,0x69,0x3a,0x0c,0x40,0x76,0x6f,0x6c,0x75,0x6d,0x65,0x69,0x55))
  TeleportPlayer(0,2,296,355,2,0)
  0()



EVENT   14
 PAGE   1
  If(1,1001,0,5,0)
   ShowMessageFace("ruka_fc1",0,0,2,1)
   ShowMessage("\\n<Luka>I don't have time to leave and come back. I don't want to find out what Sonya will do to me if I'm any later...")
   205(-1,bytes(0x04,0x08,0x6f,0x3a,0x13,0x52,0x50,0x47,0x3a,0x3a,0x4d,0x6f,0x76,0x65,0x52,0x6f,0x75,0x74,0x65,0x09,0x3a,0x0c,0x40,0x72,0x65,0x70,0x65,0x61,0x74,0x46,0x3a,0x0f,0x40,0x73,0x6b,0x69,0x70,0x70,0x61,0x62,0x6c,0x65,0x46,0x3a,0x0a,0x40,0x77,0x61,0x69,0x74,0x54,0x3a,0x0a,0x40,0x6c,0x69,0x73,0x74,0x5b,0x07,0x6f,0x3a,0x15,0x52,0x50,0x47,0x3a,0x3a,0x4d,0x6f,0x76,0x65,0x43,0x6f,0x6d,0x6d,0x61,0x6e,0x64,0x07,0x3a,0x0a,0x40,0x63,0x6f,0x64,0x65,0x69,0x07,0x3a,0x10,0x40,0x70,0x61,0x72,0x61,0x6d,0x65,0x74,0x65,0x72,0x73,0x5b,0x00,0x6f,0x3b,0x0a,0x07,0x3b,0x0b,0x69,0x00,0x3b,0x0c,0x5b,0x00))
   EndEventProcessing()
   0()
  EndIf()
  250(bytes(0x04,0x08,0x6f,0x3a,0x0c,0x52,0x50,0x47,0x3a,0x3a,0x53,0x45,0x08,0x3a,0x0a,0x40,0x6e,0x61,0x6d,0x65,0x49,0x22,0x09,0x4d,0x6f,0x76,0x65,0x06,0x3a,0x06,0x45,0x54,0x3a,0x0b,0x40,0x70,0x69,0x74,0x63,0x68,0x69,0x69,0x3a,0x0c,0x40,0x76,0x6f,0x6c,0x75,0x6d,0x65,0x69,0x55))
  TeleportPlayer(0,2,296,355,2,0)
  0()



EVENT   15
 PAGE   1
  If(1,1001,0,5,0)
   ShowMessageFace("ruka_fc1",0,0,2,1)
   ShowMessage("\\n<Luka>I don't have time to leave and come back. I don't want to find out what Sonya will do to me if I'm any later...")
   205(-1,bytes(0x04,0x08,0x6f,0x3a,0x13,0x52,0x50,0x47,0x3a,0x3a,0x4d,0x6f,0x76,0x65,0x52,0x6f,0x75,0x74,0x65,0x09,0x3a,0x0c,0x40,0x72,0x65,0x70,0x65,0x61,0x74,0x46,0x3a,0x0f,0x40,0x73,0x6b,0x69,0x70,0x70,0x61,0x62,0x6c,0x65,0x46,0x3a,0x0a,0x40,0x77,0x61,0x69,0x74,0x54,0x3a,0x0a,0x40,0x6c,0x69,0x73,0x74,0x5b,0x07,0x6f,0x3a,0x15,0x52,0x50,0x47,0x3a,0x3a,0x4d,0x6f,0x76,0x65,0x43,0x6f,0x6d,0x6d,0x61,0x6e,0x64,0x07,0x3a,0x0a,0x40,0x63,0x6f,0x64,0x65,0x69,0x07,0x3a,0x10,0x40,0x70,0x61,0x72,0x61,0x6d,0x65,0x74,0x65,0x72,0x73,0x5b,0x00,0x6f,0x3b,0x0a,0x07,0x3b,0x0b,0x69,0x00,0x3b,0x0c,0x5b,0x00))
   EndEventProcessing()
   0()
  EndIf()
  250(bytes(0x04,0x08,0x6f,0x3a,0x0c,0x52,0x50,0x47,0x3a,0x3a,0x53,0x45,0x08,0x3a,0x0a,0x40,0x6e,0x61,0x6d,0x65,0x49,0x22,0x09,0x4d,0x6f,0x76,0x65,0x06,0x3a,0x06,0x45,0x54,0x3a,0x0b,0x40,0x70,0x69,0x74,0x63,0x68,0x69,0x69,0x3a,0x0c,0x40,0x76,0x6f,0x6c,0x75,0x6d,0x65,0x69,0x55))
  TeleportPlayer(0,2,296,355,2,0)
  0()



EVENT   16
 PAGE   1
  If(1,1001,0,5,0)
   ShowMessageFace("",0,0,2,1)
   ShowMessage("\\n<Guard>You can leave the temple directly to the outside from here.")
   ShowMessageFace("",0,0,2,2)
   ShowMessage("\\n<Guard>Oh, hey Luka. If you don't hurry, Sonya is going to be pissed at you.")
   0()
  Else()
   ShowMessageFace("",0,0,2,3)
   ShowMessage("\\n<Guard>You can leave the temple directly to the outside from here.")
   0()
  EndIf()
  0()



EVENT   17
 PAGE   1
  ShowMessageFace("",0,0,2,1)
  ShowMessage("\\n<Youth>Try holding down button 4 during conversations and events. You'll speed right through the text.")
  ShowMessageFace("",0,0,2,2)
  ShowMessage("\\n<Youth>If you're using a keyboard, press [A]. Very handy for making long stories old people like to tell fly by.")
  355("actor_label_jump")
  EndEventProcessing()
  DefineLabel("99")
  ShowMessageFace("namazu_fc1",2,0,2,3)
  ShowMessage("\\n<Gigi>Jeez, show some respect for your elders.")
  EndEventProcessing()
  DefineLabel("344")
  ShowMessageFace("kirin_fc1",0,0,2,4)
  ShowMessage("【キリン】")
  ShowMessage("年寄りの話も、しっかり聞くがよい……")
  EndEventProcessing()
  0()
