﻿


EVENT   1
 PAGE   1
  281(1)
  250(bytes(0x04,0x08,0x6f,0x3a,0x0c,0x52,0x50,0x47,0x3a,0x3a,0x53,0x45,0x08,0x3a,0x0a,0x40,0x6e,0x61,0x6d,0x65,0x49,0x22,0x09,0x4d,0x6f,0x76,0x65,0x06,0x3a,0x06,0x45,0x54,0x3a,0x0b,0x40,0x70,0x69,0x74,0x63,0x68,0x69,0x69,0x3a,0x0c,0x40,0x76,0x6f,0x6c,0x75,0x6d,0x65,0x69,0x55))
  TeleportPlayer(0,508,12,18,4,0)
  0()



EVENT   2
 PAGE   1
  281(1)
  250(bytes(0x04,0x08,0x6f,0x3a,0x0c,0x52,0x50,0x47,0x3a,0x3a,0x53,0x45,0x08,0x3a,0x0a,0x40,0x6e,0x61,0x6d,0x65,0x49,0x22,0x09,0x4d,0x6f,0x76,0x65,0x06,0x3a,0x06,0x45,0x54,0x3a,0x0b,0x40,0x70,0x69,0x74,0x63,0x68,0x69,0x69,0x3a,0x0c,0x40,0x76,0x6f,0x6c,0x75,0x6d,0x65,0x69,0x55))
  TeleportPlayer(0,508,12,19,4,0)
  0()



EVENT   3
 PAGE   1
  // condition: variable 1063 >= 13
  ChangeSelfSwitch("A",0)
  If(1,1058,0,0,0)
   ShowMessageFace("ruka_fc1",0,0,2,1)
   ShowMessage("\\n<ルカ>いない...もしかしたら、解決したのかな？")
   ShowMessageFace("durahan_fc1",0,0,2,2)
   ShowMessage("\\n<アーサー>お狐様は、元気を取り戻し神社を出たという。")
   ShowMessage("この一件、すでに解決済みだな。")
   241(bytes(0x04,0x08,0x6f,0x3a,0x0d,0x52,0x50,0x47,0x3a,0x3a,0x42,0x47,0x4d,0x08,0x3a,0x0a,0x40,0x6e,0x61,0x6d,0x65,0x49,0x22,0x0a,0x6d,0x75,0x72,0x61,0x37,0x06,0x3a,0x06,0x45,0x54,0x3a,0x0c,0x40,0x76,0x6f,0x6c,0x75,0x6d,0x65,0x69,0x69,0x3a,0x0b,0x40,0x70,0x69,0x74,0x63,0x68,0x69,0x69))
   ChangeVariable(1058,1058,0,0,1)
   If(1,1057,0,3,1)
    If(1,1058,0,1,1)
     If(1,1060,0,1,1)
      If(1,1059,0,3,1)
       ChangeVariable(1055,1055,0,0,3)
       ShowMessageFace("ruka_fc1",0,0,2,3)
       ShowMessage("\\n<ルカ>これで、四大神社の困り事を全部解決したね。")
       ShowMessage("村長のところに報告に行こう！")
       EndEventProcessing()
       0()
      EndIf()
      0()
     EndIf()
     0()
    EndIf()
    0()
   EndIf()
   0()
  EndIf()
  0()
 PAGE   2
  // condition: self-switch A is ON
  0()



EVENT   4
 PAGE   1
  // condition: switch 2269 is ON
  ChangeSelfSwitch("A",0)
  Wait(60)
  PictureDisplay(5,"80_tamamo_st03",0,0,0,0,100,100,0,0)
  PictureMove(5,null,0,0,0,0,100,100,255,0,30,true)
  ShowMessageFace("tamamo_fc1",3,0,2,1)
  ShowMessage("\\n<たまも>...何の用じゃ？")
  PictureDisplay(5,"80_arumaeruma_st61",0,0,-150,0,100,100,255,0)
  PictureDisplay(6,"80_tamamo_st03",0,0,150,0,100,100,255,0)
  ShowMessageFace("arumaeruma_fc2",0,0,2,2)
  ShowMessage("\\n<アルマエルマ>分かってるでしょう、たまもちゃん？")
  ShowMessage("私達、今からグランゴルドに乗り込むの。")
  If(0,4,0)
   ShowMessageFace("alice_fc5",6,0,2,3)
   ShowMessage("\\n<アリス>...たまも！？")
   ShowMessage("まさか、こいつを引き込もうというのか！？")
   0()
  EndIf()
  If(0,5,0)
   ShowMessageFace("iriasu_fc4",5,0,2,4)
   ShowMessage("\\n<イリアス>...たまも！？")
   ShowMessage("まさか、この狐を引き込もうというのですか！？")
   0()
  EndIf()
  ShowMessageFace("arumaeruma_fc2",0,0,2,5)
  ShowMessage("\\n<アルマエルマ>たまもちゃん、私達を助けてくれないかしら？")
  ShowMessage("グランゴルドじゃ、きっと魔王の手先が待ち受けているわ。")
  ShowMessageFace("tamamo_fc1",3,0,2,6)
  ShowMessage("\\n<たまも>...あの者達も、確かな理があって行動しておる。")
  ShowMessage("ウチに邪魔などできん。")
  ShowMessageFace("arumaeruma_fc2",3,0,2,7)
  ShowMessage("\\n<アルマエルマ>でも、納得はしていないんでしょう...？")
  ShowMessageFace("tamamo_fc1",3,0,2,8)
  ShowMessage("\\n<たまも>...ウチは、もはや何にも関わらん。")
  ShowMessage("それだけじゃ、早く失せい。")
  ShowMessageFace("arumaeruma_fc2",3,0,2,9)
  ShowMessage("\\n<アルマエルマ>今の魔王様がやっている事は、正しい事...")
  ShowMessage("本当に、そう思っているのかしら？")
  205(5,bytes(0x04,0x08,0x6f,0x3a,0x13,0x52,0x50,0x47,0x3a,0x3a,0x4d,0x6f,0x76,0x65,0x52,0x6f,0x75,0x74,0x65,0x09,0x3a,0x0c,0x40,0x72,0x65,0x70,0x65,0x61,0x74,0x46,0x3a,0x0f,0x40,0x73,0x6b,0x69,0x70,0x70,0x61,0x62,0x6c,0x65,0x46,0x3a,0x0a,0x40,0x77,0x61,0x69,0x74,0x54,0x3a,0x0a,0x40,0x6c,0x69,0x73,0x74,0x5b,0x07,0x6f,0x3a,0x15,0x52,0x50,0x47,0x3a,0x3a,0x4d,0x6f,0x76,0x65,0x43,0x6f,0x6d,0x6d,0x61,0x6e,0x64,0x07,0x3a,0x0a,0x40,0x63,0x6f,0x64,0x65,0x69,0x16,0x3a,0x10,0x40,0x70,0x61,0x72,0x61,0x6d,0x65,0x74,0x65,0x72,0x73,0x5b,0x00,0x6f,0x3b,0x0a,0x07,0x3b,0x0b,0x69,0x00,0x3b,0x0c,0x5b,0x00))
  ShowMessageFace("tamamo_fc1",3,0,2,10)
  ShowMessage("\\n<たまも>ならば、他に方法があるのか！？")
  ShowMessage("だったらウチに教えてくれい！")
  If(0,4,0)
   ShowMessageFace("alice_fc6",0,0,2,11)
   ShowMessage("\\n<アリス>たまも...")
   0()
  EndIf()
  If(0,5,0)
   ShowMessageFace("iriasu_fc4",5,0,2,12)
   ShowMessage("\\n<イリアス>............")
   0()
  EndIf()
  ShowMessageFace("arumaeruma_fc2",3,0,2,13)
  ShowMessage("\\n<アルマエルマ>たまもちゃん...時には、感情に正直になるのも大切よ。")
  ShowMessage("色々と割り切れない時こそ、余計にね...")
  ShowMessageFace("tamamo_fc1",3,0,2,14)
  ShowMessage("\\n<たまも>それで済むほど、ウチは若くない...")
  ShowMessage("ウチは長く生きすぎたのじゃ...")
  205(5,bytes(0x04,0x08,0x6f,0x3a,0x13,0x52,0x50,0x47,0x3a,0x3a,0x4d,0x6f,0x76,0x65,0x52,0x6f,0x75,0x74,0x65,0x09,0x3a,0x0c,0x40,0x72,0x65,0x70,0x65,0x61,0x74,0x46,0x3a,0x0f,0x40,0x73,0x6b,0x69,0x70,0x70,0x61,0x62,0x6c,0x65,0x46,0x3a,0x0a,0x40,0x77,0x61,0x69,0x74,0x54,0x3a,0x0a,0x40,0x6c,0x69,0x73,0x74,0x5b,0x07,0x6f,0x3a,0x15,0x52,0x50,0x47,0x3a,0x3a,0x4d,0x6f,0x76,0x65,0x43,0x6f,0x6d,0x6d,0x61,0x6e,0x64,0x07,0x3a,0x0a,0x40,0x63,0x6f,0x64,0x65,0x69,0x17,0x3a,0x10,0x40,0x70,0x61,0x72,0x61,0x6d,0x65,0x74,0x65,0x72,0x73,0x5b,0x00,0x6f,0x3b,0x0a,0x07,0x3b,0x0b,0x69,0x00,0x3b,0x0c,0x5b,0x00))
  ShowMessageFace("tamamo_fc1",3,0,2,15)
  ShowMessage("\\n<たまも>...話は終わりじゃ。")
  ShowMessage("ウチを頼るでない、力にはなれん...")
  ShowMessageFace("arumaeruma_fc2",2,0,2,16)
  ShowMessage("\\n<アルマエルマ>............")
  ShowMessageFace("tamamo_fc1",3,0,2,17)
  ShowMessage("\\n<たまも>............")
  PictureClear(5)
  PictureClear(6)
  Wait(60)
  205(6,bytes(0x04,0x08,0x6f,0x3a,0x13,0x52,0x50,0x47,0x3a,0x3a,0x4d,0x6f,0x76,0x65,0x52,0x6f,0x75,0x74,0x65,0x09,0x3a,0x0c,0x40,0x72,0x65,0x70,0x65,0x61,0x74,0x46,0x3a,0x0f,0x40,0x73,0x6b,0x69,0x70,0x70,0x61,0x62,0x6c,0x65,0x46,0x3a,0x0a,0x40,0x77,0x61,0x69,0x74,0x54,0x3a,0x0a,0x40,0x6c,0x69,0x73,0x74,0x5b,0x07,0x6f,0x3a,0x15,0x52,0x50,0x47,0x3a,0x3a,0x4d,0x6f,0x76,0x65,0x43,0x6f,0x6d,0x6d,0x61,0x6e,0x64,0x07,0x3a,0x0a,0x40,0x63,0x6f,0x64,0x65,0x69,0x07,0x3a,0x10,0x40,0x70,0x61,0x72,0x61,0x6d,0x65,0x74,0x65,0x72,0x73,0x5b,0x00,0x6f,0x3b,0x0a,0x07,0x3b,0x0b,0x69,0x00,0x3b,0x0c,0x5b,0x00))
  ShowMessageFace("arumaeruma_fc2",0,0,2,18)
  ShowMessage("\\n<アルマエルマ>それじゃあルカちゃん、行きましょう。")
  ShowMessage("そろそろ作戦決行の時間よ。")
  ShowMessageFace("ruka_fc1",0,0,2,19)
  ShowMessage("\\n<ルカ>ああ、うん...")
  205(-1,bytes(0x04,0x08,0x6f,0x3a,0x13,0x52,0x50,0x47,0x3a,0x3a,0x4d,0x6f,0x76,0x65,0x52,0x6f,0x75,0x74,0x65,0x09,0x3a,0x0c,0x40,0x72,0x65,0x70,0x65,0x61,0x74,0x46,0x3a,0x0f,0x40,0x73,0x6b,0x69,0x70,0x70,0x61,0x62,0x6c,0x65,0x54,0x3a,0x0a,0x40,0x77,0x61,0x69,0x74,0x54,0x3a,0x0a,0x40,0x6c,0x69,0x73,0x74,0x5b,0x0a,0x6f,0x3a,0x15,0x52,0x50,0x47,0x3a,0x3a,0x4d,0x6f,0x76,0x65,0x43,0x6f,0x6d,0x6d,0x61,0x6e,0x64,0x07,0x3a,0x0a,0x40,0x63,0x6f,0x64,0x65,0x69,0x09,0x3a,0x10,0x40,0x70,0x61,0x72,0x61,0x6d,0x65,0x74,0x65,0x72,0x73,0x5b,0x00,0x6f,0x3b,0x0a,0x07,0x3b,0x0b,0x69,0x09,0x3b,0x0c,0x5b,0x00,0x6f,0x3b,0x0a,0x07,0x3b,0x0b,0x69,0x07,0x3b,0x0c,0x5b,0x00,0x6f,0x3b,0x0a,0x07,0x3b,0x0b,0x69,0x07,0x3b,0x0c,0x5b,0x00,0x6f,0x3b,0x0a,0x07,0x3b,0x0b,0x69,0x00,0x3b,0x0c,0x5b,0x00))
  250(bytes(0x04,0x08,0x6f,0x3a,0x0c,0x52,0x50,0x47,0x3a,0x3a,0x53,0x45,0x08,0x3a,0x0a,0x40,0x6e,0x61,0x6d,0x65,0x49,0x22,0x09,0x4d,0x6f,0x76,0x65,0x06,0x3a,0x06,0x45,0x54,0x3a,0x0b,0x40,0x70,0x69,0x74,0x63,0x68,0x69,0x69,0x3a,0x0c,0x40,0x76,0x6f,0x6c,0x75,0x6d,0x65,0x69,0x55))
  211(0)
  205(6,bytes(0x04,0x08,0x6f,0x3a,0x13,0x52,0x50,0x47,0x3a,0x3a,0x4d,0x6f,0x76,0x65,0x52,0x6f,0x75,0x74,0x65,0x09,0x3a,0x0c,0x40,0x72,0x65,0x70,0x65,0x61,0x74,0x46,0x3a,0x0f,0x40,0x73,0x6b,0x69,0x70,0x70,0x61,0x62,0x6c,0x65,0x46,0x3a,0x0a,0x40,0x77,0x61,0x69,0x74,0x54,0x3a,0x0a,0x40,0x6c,0x69,0x73,0x74,0x5b,0x07,0x6f,0x3a,0x15,0x52,0x50,0x47,0x3a,0x3a,0x4d,0x6f,0x76,0x65,0x43,0x6f,0x6d,0x6d,0x61,0x6e,0x64,0x07,0x3a,0x0a,0x40,0x63,0x6f,0x64,0x65,0x69,0x17,0x3a,0x10,0x40,0x70,0x61,0x72,0x61,0x6d,0x65,0x74,0x65,0x72,0x73,0x5b,0x00,0x6f,0x3b,0x0a,0x07,0x3b,0x0b,0x69,0x00,0x3b,0x0c,0x5b,0x00))
  ShowMessageFace("arumaeruma_fc2",3,0,2,20)
  ShowMessage("\\n<アルマエルマ>今、動かないと...")
  ShowMessage("一生、そこで後悔し続ける事になるわよ。")
  ShowMessageFace("tamamo_fc1",3,0,2,21)
  ShowMessage("\\n<たまも>...それまで、地上が存在したらな。")
  205(6,bytes(0x04,0x08,0x6f,0x3a,0x13,0x52,0x50,0x47,0x3a,0x3a,0x4d,0x6f,0x76,0x65,0x52,0x6f,0x75,0x74,0x65,0x09,0x3a,0x0c,0x40,0x72,0x65,0x70,0x65,0x61,0x74,0x46,0x3a,0x0f,0x40,0x73,0x6b,0x69,0x70,0x70,0x61,0x62,0x6c,0x65,0x54,0x3a,0x0a,0x40,0x77,0x61,0x69,0x74,0x54,0x3a,0x0a,0x40,0x6c,0x69,0x73,0x74,0x5b,0x0c,0x6f,0x3a,0x15,0x52,0x50,0x47,0x3a,0x3a,0x4d,0x6f,0x76,0x65,0x43,0x6f,0x6d,0x6d,0x61,0x6e,0x64,0x07,0x3a,0x0a,0x40,0x63,0x6f,0x64,0x65,0x69,0x07,0x3a,0x10,0x40,0x70,0x61,0x72,0x61,0x6d,0x65,0x74,0x65,0x72,0x73,0x5b,0x00,0x6f,0x3b,0x0a,0x07,0x3b,0x0b,0x69,0x07,0x3b,0x0c,0x5b,0x00,0x6f,0x3b,0x0a,0x07,0x3b,0x0b,0x69,0x09,0x3b,0x0c,0x5b,0x00,0x6f,0x3b,0x0a,0x07,0x3b,0x0b,0x69,0x09,0x3b,0x0c,0x5b,0x00,0x6f,0x3b,0x0a,0x07,0x3b,0x0b,0x69,0x07,0x3b,0x0c,0x5b,0x00,0x6f,0x3b,0x0a,0x07,0x3b,0x0b,0x69,0x07,0x3b,0x0c,0x5b,0x00,0x6f,0x3b,0x0a,0x07,0x3b,0x0b,0x69,0x00,0x3b,0x0c,0x5b,0x00))
  250(bytes(0x04,0x08,0x6f,0x3a,0x0c,0x52,0x50,0x47,0x3a,0x3a,0x53,0x45,0x08,0x3a,0x0a,0x40,0x6e,0x61,0x6d,0x65,0x49,0x22,0x09,0x4d,0x6f,0x76,0x65,0x06,0x3a,0x06,0x45,0x54,0x3a,0x0b,0x40,0x70,0x69,0x74,0x63,0x68,0x69,0x69,0x3a,0x0c,0x40,0x76,0x6f,0x6c,0x75,0x6d,0x65,0x69,0x55))
  ChangeSwitch(31,31,1)
  242(1)
  Wait(60)
  ShowMessageFace("tamamo_fc1",3,0,2,22)
  ShowMessage("\\n<たまも>............")
  Wait(60)
  221()
  314(0,0)
  TeleportPlayer(0,734,1,0,0,2)
  0()
 PAGE   2
  // condition: self-switch A is ON
  0()

EVENT   5
 PAGE   1
  If(1,1058,0,0,0)
   241(bytes(0x04,0x08,0x6f,0x3a,0x0d,0x52,0x50,0x47,0x3a,0x3a,0x42,0x47,0x4d,0x08,0x3a,0x0a,0x40,0x6e,0x61,0x6d,0x65,0x49,0x22,0x13,0x73,0x63,0x65,0x6e,0x65,0x5f,0x6f,0x64,0x61,0x79,0x61,0x6b,0x61,0x32,0x06,0x3a,0x06,0x45,0x54,0x3a,0x0c,0x40,0x76,0x6f,0x6c,0x75,0x6d,0x65,0x69,0x69,0x3a,0x0b,0x40,0x70,0x69,0x74,0x63,0x68,0x69,0x69))
   PictureDisplay(5,"80_tamamo_st03",0,0,0,0,100,100,0,0)
   PictureMove(5,null,0,0,0,0,100,100,255,0,30,true)
   If(0,4,0)
    ShowMessageFace("tamamo_fc1",3,0,2,1)
    ShowMessage("\\n<たまも>............")
    ShowMessageFace("alice_fc5",2,0,2,2)
    ShowMessage("\\n<アリス>Tamamo...\nWhat are you doing here?")
    ShowMessageFace("tamamo_fc1",3,0,2,3)
    ShowMessage("\\n<たまも>I...")
    ShowMessageFace("tamamo_fc1",3,0,2,4)
    ShowMessage("\\n<たまも>There's nothing I can do. Even Her Majesty cast me aside...")
    ShowMessageFace("alice_fc5",2,0,2,5)
    ShowMessage("\\n<アリス>What happened, Tamamo?\nI've never seen you so depressed before.")
    ShowMessageFace("alice_fc5",2,0,2,6)
    ShowMessage("\\n<アリス>Also, what about my mother, Alipheese the 15th? Do you know what happened to me, the crisis facing our world, or anything?")
    ShowMessageFace("tamamo_fc1",3,0,2,7)
    ShowMessage("\\n<たまも>魔王様をその姿に変えたのは...")
    ShowMessage("お主の母上、アリスフィーズ15世の手引きじゃ。")
    ShowMessageFace("tamamo_fc1",3,0,2,8)
    ShowMessage("\\n<たまも>これからするべき事の全てを、ご自身の手で行うため...")
    ShowMessage("そのため、魔王様を無力な姿に変えたのじゃ。")
    ShowMessageFace("alice_fc6",0,0,2,9)
    ShowMessage("\\n<アリス>母上が、余をこの姿に...！？")
    ShowMessageFace("alice_fc6",1,0,2,10)
    ShowMessage("\\n<アリス>それに、これからすべき事とはなんだ？")
    ShowMessage("余が力不足だから、こんな姿にして叩き出したのか！？")
    ShowMessageFace("tamamo_fc1",3,0,2,11)
    ShowMessage("\\n<たまも>15世は、全てを自身の責任において行う気なのじゃ。")
    ShowMessage("お主の手を汚させまいと...全てを自分で被ろうと...")
    ShowMessageFace("alice_fc6",0,0,2,12)
    ShowMessage("\\n<アリス>どういうことだ？　いったい、何を...")
    ShowMessageFace("tamamo_fc1",3,0,2,13)
    ShowMessage("\\n<たまも>それは、ウチの口からは言えん。")
    ShowMessage("それが正しいかどうかさえ、ウチには分からん...")
    ShowMessageFace("tamamo_fc1",3,0,2,14)
    ShowMessage("\\n<たまも>ウチは、この世界で長く生き過ぎた...")
    ShowMessage("そして、この世界に情を持ちすぎてしもうた...")
    ShowMessageFace("tamamo_fc1",3,0,2,15)
    ShowMessage("\\n<たまも>「あれ」が世界を救う唯一の手段だというのに...")
    ShowMessage("ウチには、割り切れなくなってしもうた...")
    ShowMessageFace("alice_fc6",0,0,2,16)
    ShowMessage("\\n<アリス>ちゃんと説明しろ！")
    ShowMessage("母上は、いったい何を行う気なのだ！？")
    ShowMessageFace("tamamo_fc1",3,0,2,17)
    ShowMessage("\\n<たまも>...言えん。")
    ShowMessage("ウチの口からは、とても...")
    ShowMessageFace("tamamo_fc1",3,0,2,18)
    ShowMessage("\\n<たまも>............")
    ShowMessageFace("alice_fc5",2,0,2,19)
    ShowMessage("\\n<アリス>おい、たまも！")
    ShowMessageFace("tamamo_fc1",3,0,2,20)
    ShowMessage("\\n<たまも>............")
    ShowMessageFace("tamamo_fc1",3,0,2,21)
    ShowMessage("\\n<たまも>そっとしておいてほしいのじゃ...")
    PictureClear(5)
    ShowMessageFace("alice_fc5",2,0,2,22)
    ShowMessage("\\n<アリス>埒があかんようだな...")
    ShowMessage("こいつが相手では、腕尽くで聞き出す事も不可能だ。")
    ShowMessageFace("alice_fc5",3,0,2,23)
    ShowMessage("\\n<アリス>余をこの姿にしたのは、母上の手引きだと...？")
    ShowMessage("そして母上は、いったいどんな計画を...")
    0()
   EndIf()
   If(0,5,0)
    ShowMessageFace("tamamo_fc1",3,0,2,24)
    ShowMessage("\\n<たまも>............")
    ShowMessageFace("iriasu_fc4",5,0,2,25)
    ShowMessage("\\n<イリアス>やはり、たまも！")
    ShowMessage("いったい、ここで何をしているのです...！？")
    ShowMessageFace("tamamo_fc1",3,0,2,26)
    ShowMessage("\\n<たまも>イリアスか...")
    ShowMessageFace("tamamo_fc1",3,0,2,27)
    ShowMessage("\\n<たまも>ウチは、もう何もできん...")
    ShowMessage("ここで腐り果てるのみじゃ...")
    ShowMessageFace("iriasu_fc4",7,0,2,28)
    ShowMessage("\\n<イリアス>そんなフリをしても、騙されませんよ。")
    ShowMessage("狡猾にして残酷な魔性の獣...あなたの本性は知っています。")
    ShowMessageFace("tamamo_fc1",3,0,2,29)
    ShowMessage("\\n<たまも>そんなものは、遠い昔の話じゃ。")
    ShowMessage("かつてのウチなら、かように苦しむ事もなかったがな...")
    ShowMessageFace("tamamo_fc1",3,0,2,30)
    ShowMessage("\\n<たまも>ウチは、この世界で長く生き過ぎた...")
    ShowMessage("そして、この世界に情を持ちすぎてしもうた...")
    ShowMessageFace("tamamo_fc1",3,0,2,31)
    ShowMessage("\\n<たまも>「あれ」が世界を救う唯一の手段だというのに...")
    ShowMessage("ウチには、割り切れなくなってしもうた...")
    ShowMessageFace("iriasu_fc4",7,0,2,32)
    ShowMessage("\\n<イリアス>いったい、何を言っているのです！")
    ShowMessage("ちゃんと説明しなさい！")
    ShowMessageFace("tamamo_fc1",3,0,2,33)
    ShowMessage("\\n<たまも>...言えん。")
    ShowMessage("ウチの口からは、とても...")
    ShowMessageFace("tamamo_fc1",3,0,2,34)
    ShowMessage("\\n<たまも>............")
    ShowMessageFace("iriasu_fc4",7,0,2,35)
    ShowMessage("\\n<イリアス>説明するのです！")
    ShowMessageFace("tamamo_fc1",3,0,2,36)
    ShowMessage("\\n<たまも>............")
    ShowMessageFace("tamamo_fc1",3,0,2,37)
    ShowMessage("\\n<たまも>そっとしておいてほしいのじゃ...")
    PictureClear(5)
    ShowMessageFace("iriasu_fc4",2,0,2,38)
    ShowMessage("\\n<イリアス>...時間の無駄ですね。")
    ShowMessage("この狐が相手では、力尽くで聞き出す事も無理でしょう。")
    ShowMessageFace("iriasu_fc4",2,0,2,39)
    ShowMessage("\\n<イリアス>アリスフィーズ15世は、何を企んでいるのでしょう。")
    ShowMessage("計画とは、いったい...")
    0()
   EndIf()
   ShowMessageFace("durahan_fc1",0,0,2,40)
   ShowMessage("\\n<アーサー>こればかりは、どうにもならんな。")
   ShowMessage("実害もないようだし、この件は解決した事にしておくか...")
   241(bytes(0x04,0x08,0x6f,0x3a,0x0d,0x52,0x50,0x47,0x3a,0x3a,0x42,0x47,0x4d,0x08,0x3a,0x0a,0x40,0x6e,0x61,0x6d,0x65,0x49,0x22,0x0a,0x6d,0x75,0x72,0x61,0x37,0x06,0x3a,0x06,0x45,0x54,0x3a,0x0c,0x40,0x76,0x6f,0x6c,0x75,0x6d,0x65,0x69,0x69,0x3a,0x0b,0x40,0x70,0x69,0x74,0x63,0x68,0x69,0x69))
   ChangeVariable(1058,1058,0,0,1)
   If(1,1057,0,3,1)
    If(1,1058,0,1,1)
     If(1,1060,0,1,1)
      If(1,1059,0,3,1)
       ChangeVariable(1055,1055,0,0,3)
       ShowMessageFace("ruka_fc1",0,0,2,41)
       ShowMessage("\\n<ルカ>これで、四大神社の困り事を全部解決したね。")
       ShowMessage("村長のところに報告に行こう！")
       EndEventProcessing()
       0()
      EndIf()
      0()
     EndIf()
     0()
    EndIf()
    0()
   EndIf()
   ShowMessageFace("ruka_fc1",0,0,2,42)
   ShowMessage("\\n<ルカ>All right, on to the next shrine!")
   EndEventProcessing()
   0()
  EndIf()
  If(1,1058,0,1,0)
   PictureDisplay(5,"80_tamamo_st03",0,0,0,0,100,100,0,0)
   PictureMove(5,null,0,0,0,0,100,100,255,0,30,true)
   ShowMessageFace("tamamo_fc1",3,0,2,43)
   ShowMessage("\\n<たまも>ウチには、できん...")
   ShowMessage("あの計画しかないと分かっていても...")
   ShowMessageFace("tamamo_fc1",3,0,2,44)
   ShowMessage("\\n<たまも>............")
   ShowMessageFace("tamamo_fc1",3,0,2,45)
   ShowMessage("\\n<たまも>そっとしておいてほしいのじゃ...")
   If(4,102,0)
    ShowMessageFace("youko_fc1",2,0,2,46)
    ShowMessage("\\n<きつね>たまも様～！")
    ShowMessageFace("tamamo_fc1",3,0,2,47)
    ShowMessage("\\n<たまも>............")
    0()
   EndIf()
   If(4,103,0)
    ShowMessageFace("kamuro_fc1",2,0,2,48)
    ShowMessage("\\n<かむろ>あ、あの...その...")
    ShowMessageFace("tamamo_fc1",3,0,2,49)
    ShowMessage("\\n<たまも>............")
    0()
   EndIf()
   PictureClear(5)
   EndEventProcessing()
   0()
  EndIf()
  0()
 PAGE   2
  // condition: variable 1063 >= 2
  0()



EVENT   6
 PAGE   1
  // condition: switch 31 is ON
  0()



EVENT   7
 PAGE   1
  ShowMessageFace("",0,0,2,1)
  ShowMessage("\\n<キツネ>............")
  0()



EVENT   8
 PAGE   1
  ShowMessageFace("",0,0,2,1)
  ShowMessage("\\n<キツネ>............")
  0()



EVENT   9
 PAGE   1
  ShowMessageFace("",0,0,2,1)
  ShowMessage("\\n<キツネ>............")
  0()



EVENT   10
 PAGE   1
  ShowMessageFace("",0,0,2,1)
  ShowMessage("\\n<キツネ>............")
  0()



EVENT   11
 PAGE   1
  ShowMessageFace("",0,0,2,1)
  ShowMessage("\\n<キツネ>............")
  0()


