// EVENT 0074
Name "Skill: Play 341-350"

ChangeVariable(11,11,0,2,1,5)
If(1,100,0,341,0)
 If(1,11,0,1,0)
  ShowMessageFace("lilith_fc1",0,0,2,1)
  ShowMessage("【リリス＆リリム】")
  ShowMessage("うふふっ……")
  ShowMessageFace("",0,0,2,2)
  ShowMessage("リリスとリリムはくすくす笑っている……")
  EndEventProcessing()
  0()
 EndIf()
 If(1,11,0,2,0)
  ShowMessageFace("lilith_fc1",0,0,2,3)
  ShowMessage("【リリス＆リリム】")
  ShowMessage("淫魔の火遊びよ……ふふっ。")
  355("interrupt_skill(3295)")
  EndEventProcessing()
  0()
 EndIf()
 If(1,11,0,3,0)
  ShowMessageFace("lilith_fc1",0,0,2,4)
  ShowMessage("【リリス＆リリム】")
  ShowMessage("ふふっ……")
  313(0,191,0,24)
  ShowMessageFace("",0,0,2,5)
  ShowMessage("リリスとリリムは互いの体を愛撫している……")
  ShowMessage("リリスとリリムは敏感になった！")
  EndEventProcessing()
  0()
 EndIf()
 If(1,11,0,4,0)
  ShowMessageFace("lilith_fc1",0,0,2,6)
  ShowMessage("【リリス＆リリム】")
  ShowMessage("私達の目を見て……")
  355("interrupt_skill(2560)")
  EndEventProcessing()
  0()
 EndIf()
 If(1,11,0,5,0)
  ShowMessageFace("lilith_fc1",0,0,2,7)
  ShowMessage("【リリス＆リリム】")
  ShowMessage("ふふっ……")
  355("interrupt_skill(3296)")
  EndEventProcessing()
  0()
 EndIf()
 0()
EndIf()
If(1,100,0,342,0)
 If(1,11,0,1,0)
  ShowMessageFace("m_shadow_fc1",0,0,2,8)
  ShowMessage("【エスメラルダ】")
  ShowMessage("……………………")
  ShowMessageFace("",0,0,2,9)
  ShowMessage("エスメラルダはぼーっとしている……")
  EndEventProcessing()
  0()
 EndIf()
 If(1,11,0,2,0)
  ShowMessageFace("m_shadow_fc1",0,0,2,10)
  ShowMessage("【エスメラルダ】")
  ShowMessage("取り憑くわ……")
  355("interrupt_skill(2959)")
  EndEventProcessing()
  0()
 EndIf()
 If(1,11,0,3,0)
  ShowMessageFace("m_shadow_fc1",0,0,2,11)
  ShowMessage("【エスメラルダ】")
  ShowMessage("短い眠りに就くわ……")
  313(0,342,0,11)
  ShowMessageFace("",0,0,2,12)
  ShowMessage("エスメラルダは居眠りしている……")
  EndEventProcessing()
  0()
 EndIf()
 If(1,11,0,4,0)
  ShowMessageFace("m_shadow_fc1",0,0,2,13)
  ShowMessage("【エスメラルダ】")
  ShowMessage("これをあげるわ……")
  ShowMessageFace("",0,0,2,14)
  ShowMessage("エスメラルダからの差し入れだ！")
  250(bytes(0x04,0x08,0x6f,0x3a,0x0c,0x52,0x50,0x47,0x3a,0x3a,0x53,0x45,0x08,0x3a,0x0a,0x40,0x6e,0x61,0x6d,0x65,0x49,0x22,0x0a,0x49,0x74,0x65,0x6d,0x31,0x06,0x3a,0x06,0x45,0x54,0x3a,0x0b,0x40,0x70,0x69,0x74,0x63,0x68,0x69,0x69,0x3a,0x0c,0x40,0x76,0x6f,0x6c,0x75,0x6d,0x65,0x69,0x55))
  ChangeInventory_Item(387,0,0,1)
  ShowMessageFace("",0,0,2,15)
  ShowMessage("「てんぷら」を手に入れた！")
  EndEventProcessing()
  0()
 EndIf()
 If(1,11,0,5,0)
  ShowMessageFace("m_shadow_fc1",0,0,2,16)
  ShowMessage("【エスメラルダ】")
  ShowMessage("火遊びは娯楽よ……")
  355("interrupt_skill(3295)")
  EndEventProcessing()
  0()
 EndIf()
 0()
EndIf()
If(1,100,0,343,0)
 If(1,11,0,1,0)
  ShowMessageFace("enenra_fc1",1,0,2,17)
  ShowMessage("【夕霧】")
  ShowMessage("くくく……")
  ShowMessageFace("",0,0,2,18)
  ShowMessage("煙々羅は不敵に笑っている……")
  EndEventProcessing()
  0()
 EndIf()
 If(1,11,0,2,0)
  ShowMessageFace("enenra_fc1",2,0,2,19)
  ShowMessage("【夕霧】")
  ShowMessage("まったく、最近の若者は頼りないのう……")
  ShowMessageFace("",0,0,2,20)
  ShowMessage("夕霧は一人で愚痴を言っている……")
  EndEventProcessing()
  0()
 EndIf()
 If(1,11,0,3,0)
  ShowMessageFace("enenra_fc1",1,0,2,21)
  ShowMessage("【夕霧】")
  ShowMessage("祭りじゃ！　一人祭りじゃ！")
  ShowMessageFace("",0,0,2,22)
  ShowMessage("夕霧は陽気に歌って踊っている……")
  EndEventProcessing()
  0()
 EndIf()
 If(1,11,0,4,0)
  ShowMessageFace("enenra_fc1",1,0,2,23)
  ShowMessage("【夕霧】")
  ShowMessage("ほれ、これをやろう！")
  ShowMessageFace("",0,0,2,24)
  ShowMessage("夕霧からの差し入れだ！")
  250(bytes(0x04,0x08,0x6f,0x3a,0x0c,0x52,0x50,0x47,0x3a,0x3a,0x53,0x45,0x08,0x3a,0x0a,0x40,0x6e,0x61,0x6d,0x65,0x49,0x22,0x0a,0x49,0x74,0x65,0x6d,0x31,0x06,0x3a,0x06,0x45,0x54,0x3a,0x0b,0x40,0x70,0x69,0x74,0x63,0x68,0x69,0x69,0x3a,0x0c,0x40,0x76,0x6f,0x6c,0x75,0x6d,0x65,0x69,0x55))
  ChangeInventory_Item(396,0,0,1)
  ShowMessageFace("",0,0,2,25)
  ShowMessage("「おでん」を手に入れた！")
  EndEventProcessing()
  0()
 EndIf()
 If(1,11,0,5,0)
  ShowMessageFace("enenra_fc1",1,0,2,26)
  ShowMessage("【夕霧】")
  ShowMessage("火遊びは楽しいのう……")
  355("interrupt_skill(3295)")
  EndEventProcessing()
  0()
 EndIf()
 0()
EndIf()
If(1,100,0,344,0)
 If(1,11,0,1,0)
  ShowMessageFace("kirin_fc1",0,0,2,27)
  ShowMessage("【キリン】")
  ShowMessage("お絵描きじゃ……")
  ShowMessageFace("",0,0,2,28)
  ShowMessage("キリンは地面に落書きをしている……")
  EndEventProcessing()
  0()
 EndIf()
 If(1,11,0,2,0)
  ShowMessageFace("kirin_fc1",0,0,2,29)
  ShowMessage("【キリン】")
  ShowMessage("放電じゃ！")
  355("interrupt_skill(3308)")
  EndEventProcessing()
  0()
 EndIf()
 If(1,11,0,3,0)
  ShowMessageFace("kirin_fc1",3,0,2,30)
  ShowMessage("【キリン】")
  ShowMessage("ぬおっ、自分の電撃で体が……！")
  313(0,344,0,15)
  ShowMessageFace("",0,0,2,31)
  ShowMessage("キリンの体は痺れてしまった！")
  EndEventProcessing()
  0()
 EndIf()
 If(1,11,0,4,0)
  ShowMessageFace("kirin_fc1",0,0,2,32)
  ShowMessage("【キリン】")
  ShowMessage("ほれ、これで力を付けるが良い。")
  ShowMessageFace("",0,0,2,33)
  ShowMessage("キリンからの差し入れだ！")
  250(bytes(0x04,0x08,0x6f,0x3a,0x0c,0x52,0x50,0x47,0x3a,0x3a,0x53,0x45,0x08,0x3a,0x0a,0x40,0x6e,0x61,0x6d,0x65,0x49,0x22,0x0a,0x49,0x74,0x65,0x6d,0x31,0x06,0x3a,0x06,0x45,0x54,0x3a,0x0b,0x40,0x70,0x69,0x74,0x63,0x68,0x69,0x69,0x3a,0x0c,0x40,0x76,0x6f,0x6c,0x75,0x6d,0x65,0x69,0x55))
  ChangeInventory_Item(388,0,0,1)
  ShowMessageFace("",0,0,2,34)
  ShowMessage("「エビチリ」を手に入れた！")
  EndEventProcessing()
  0()
 EndIf()
 If(1,11,0,5,0)
  ShowMessageFace("kirin_fc1",0,0,2,35)
  ShowMessage("【キリン】")
  ShowMessage("どれ、ちょっとイタズラをするか……")
  355("interrupt_skill(3295)")
  EndEventProcessing()
  0()
 EndIf()
 0()
EndIf()
If(1,100,0,345,0)
 If(1,11,0,1,0)
  ShowMessageFace("zyakotuonna_fc1",0,0,2,36)
  ShowMessage("【蛇骨殿】")
  ShowMessage("くくくっ……")
  355("interrupt_skill(3296)")
  EndEventProcessing()
  0()
 EndIf()
 If(1,11,0,2,0)
  ShowMessageFace("zyakotuonna_fc1",0,0,2,37)
  ShowMessage("【蛇骨殿】")
  ShowMessage("古来より、長いものには巻かれよと言ってな……")
  ShowMessageFace("",0,0,2,38)
  ShowMessage("蛇骨殿は説教を始めた！")
  ShowMessage("しかし誰も聞いていない……")
  EndEventProcessing()
  0()
 EndIf()
 If(1,11,0,3,0)
  ShowMessageFace("zyakotuonna_fc1",0,0,2,39)
  ShowMessage("【蛇骨殿】")
  ShowMessage("軽く冬眠でもするか……")
  313(0,345,0,11)
  ShowMessageFace("",0,0,2,40)
  ShowMessage("蛇骨殿は居眠りしている……")
  EndEventProcessing()
  0()
 EndIf()
 If(1,11,0,4,0)
  ShowMessageFace("zyakotuonna_fc1",0,0,2,41)
  ShowMessage("【蛇骨殿】")
  ShowMessage("ほれ、これをやろう。")
  ShowMessageFace("",0,0,2,42)
  ShowMessage("蛇骨殿からの差し入れだ！")
  250(bytes(0x04,0x08,0x6f,0x3a,0x0c,0x52,0x50,0x47,0x3a,0x3a,0x53,0x45,0x08,0x3a,0x0a,0x40,0x6e,0x61,0x6d,0x65,0x49,0x22,0x0a,0x49,0x74,0x65,0x6d,0x31,0x06,0x3a,0x06,0x45,0x54,0x3a,0x0b,0x40,0x70,0x69,0x74,0x63,0x68,0x69,0x69,0x3a,0x0c,0x40,0x76,0x6f,0x6c,0x75,0x6d,0x65,0x69,0x55))
  ChangeInventory_Item(332,0,0,1)
  ShowMessageFace("",0,0,2,43)
  ShowMessage("「豆腐」を手に入れた！")
  EndEventProcessing()
  0()
 EndIf()
 If(1,11,0,5,0)
  ShowMessageFace("zyakotuonna_fc1",0,0,2,44)
  ShowMessage("【蛇骨殿】")
  ShowMessage("邪魔よ……！")
  355("interrupt_skill(2741)")
  EndEventProcessing()
  0()
 EndIf()
 0()
EndIf()
If(1,100,0,346,0)
 If(1,11,0,1,0)
  ShowMessageFace("behemoth_fc1",0,0,2,45)
  ShowMessage("【ベヒーナ】")
  ShowMessage("ぬんっ……！")
  ShowMessageFace("",0,0,2,46)
  ShowMessage("ベヒーナは流し目を送った……")
  ShowMessage("しかし、睨んでいるようにしか見えない！")
  EndEventProcessing()
  0()
 EndIf()
 If(1,11,0,2,0)
  ShowMessageFace("behemoth_fc1",0,0,2,47)
  ShowMessage("【ベヒーナ】")
  ShowMessage("どけぇっ！！")
  355("interrupt_skill(2695)")
  EndEventProcessing()
  0()
 EndIf()
 If(1,11,0,3,0)
  ShowMessageFace("behemoth_fc1",0,0,2,48)
  ShowMessage("【ベヒーナ】")
  ShowMessage("腹が減ったぞ……")
  ShowMessageFace("",0,0,2,49)
  ShowMessage("ベヒーナは食料を盗み食いしている……")
  EndEventProcessing()
  0()
 EndIf()
 If(1,11,0,4,0)
  ShowMessageFace("behemoth_fc1",0,0,2,50)
  ShowMessage("【ベヒーナ】")
  ShowMessage("これを食え！")
  ShowMessageFace("",0,0,2,51)
  ShowMessage("ベヒーナからの差し入れだ！")
  250(bytes(0x04,0x08,0x6f,0x3a,0x0c,0x52,0x50,0x47,0x3a,0x3a,0x53,0x45,0x08,0x3a,0x0a,0x40,0x6e,0x61,0x6d,0x65,0x49,0x22,0x0a,0x49,0x74,0x65,0x6d,0x31,0x06,0x3a,0x06,0x45,0x54,0x3a,0x0b,0x40,0x70,0x69,0x74,0x63,0x68,0x69,0x69,0x3a,0x0c,0x40,0x76,0x6f,0x6c,0x75,0x6d,0x65,0x69,0x55))
  ChangeInventory_Item(376,0,0,1)
  ShowMessageFace("",0,0,2,52)
  ShowMessage("「ちぃぱっぱ」を手に入れた！")
  EndEventProcessing()
  0()
 EndIf()
 If(1,11,0,5,0)
  ShowMessageFace("behemoth_fc1",0,0,2,53)
  ShowMessage("【ベヒーナ】")
  ShowMessage("おぉぉぉっ！")
  355("interrupt_skill(2698)")
  EndEventProcessing()
  0()
 EndIf()
 0()
EndIf()
If(1,100,0,347,0)
 If(1,11,0,1,0)
  ShowMessageFace("wyvern_fc1",1,0,2,54)
  ShowMessage("【ワーバイン】")
  ShowMessage("たまには、楽しまねばな……！")
  ShowMessageFace("",0,0,2,55)
  ShowMessage("ワーバインは陽気に歌って踊っている……")
  EndEventProcessing()
  0()
 EndIf()
 If(1,11,0,2,0)
  ShowMessageFace("wyvern_fc1",0,0,2,56)
  ShowMessage("【ワーバイン】")
  ShowMessage("ばさばさするぞ！")
  355("interrupt_skill(2831)")
  EndEventProcessing()
  0()
 EndIf()
 If(1,11,0,3,0)
  ShowMessageFace("wyvern_fc1",0,0,2,57)
  ShowMessage("【ワーバイン】")
  ShowMessage("少し寝るか……")
  313(0,347,0,11)
  ShowMessageFace("",0,0,2,58)
  ShowMessage("ワーバインは居眠りしている……")
  EndEventProcessing()
  0()
 EndIf()
 If(1,11,0,4,0)
  ShowMessageFace("wyvern_fc1",0,0,2,59)
  ShowMessage("【ワーバイン】")
  ShowMessage("これをやろう！")
  ShowMessageFace("",0,0,2,60)
  ShowMessage("ワーバインからの差し入れだ！")
  250(bytes(0x04,0x08,0x6f,0x3a,0x0c,0x52,0x50,0x47,0x3a,0x3a,0x53,0x45,0x08,0x3a,0x0a,0x40,0x6e,0x61,0x6d,0x65,0x49,0x22,0x0a,0x49,0x74,0x65,0x6d,0x31,0x06,0x3a,0x06,0x45,0x54,0x3a,0x0b,0x40,0x70,0x69,0x74,0x63,0x68,0x69,0x69,0x3a,0x0c,0x40,0x76,0x6f,0x6c,0x75,0x6d,0x65,0x69,0x55))
  ChangeInventory_Item(358,0,0,1)
  ShowMessageFace("",0,0,2,61)
  ShowMessage("「ハンバーガー」を手に入れた！")
  EndEventProcessing()
  0()
 EndIf()
 If(1,11,0,5,0)
  ShowMessageFace("wyvern_fc1",0,0,2,62)
  ShowMessage("【ワーバイン】")
  ShowMessage("おおおおっ！！")
  355("interrupt_skill(2698)")
  EndEventProcessing()
  0()
 EndIf()
 0()
EndIf()
If(1,100,0,348,0)
 If(1,11,0,1,0)
  ShowMessageFace("kyoryuu_fc1",1,0,2,63)
  ShowMessage("【ぎが】")
  ShowMessage("ぼんやり……")
  ShowMessageFace("",0,0,2,64)
  ShowMessage("ぎがはぼんやりしている……")
  EndEventProcessing()
  0()
 EndIf()
 If(1,11,0,2,0)
  ShowMessageFace("kyoryuu_fc1",1,0,2,65)
  ShowMessage("【ぎが】")
  ShowMessage("もしゃもしゃ……")
  ShowMessageFace("",0,0,2,66)
  ShowMessage("ぎがは食料を盗み食いしている……")
  EndEventProcessing()
  0()
 EndIf()
 If(1,11,0,3,0)
  ShowMessageFace("kyoryuu_fc1",1,0,2,67)
  ShowMessage("【ぎが】")
  ShowMessage("すやすや……")
  313(0,348,0,11)
  ShowMessageFace("",0,0,2,68)
  ShowMessage("ぎがは居眠りしている……")
  EndEventProcessing()
  0()
 EndIf()
 If(1,11,0,4,0)
  ShowMessageFace("kyoryuu_fc1",0,0,2,69)
  ShowMessage("【ぎが】")
  ShowMessage("まごまご……")
  ShowMessageFace("",0,0,2,70)
  ShowMessage("ぎがはまごまごしている……")
  EndEventProcessing()
  0()
 EndIf()
 If(1,11,0,5,0)
  ShowMessageFace("kyoryuu_fc1",1,0,2,71)
  ShowMessage("【ぎが】")
  ShowMessage("ずずーん！")
  355("interrupt_skill(2993)")
  EndEventProcessing()
  0()
 EndIf()
 0()
EndIf()
If(1,100,0,349,0)
 If(1,11,0,1,0)
  ShowMessageFace("monk_sucubuss_fc1",0,0,2,72)
  ShowMessage("【エルゼ】")
  ShowMessage("はっ！　ふんっ！")
  ShowMessageFace("",0,0,2,73)
  ShowMessage("エルゼはこっそり修行している……")
  EndEventProcessing()
  0()
 EndIf()
 If(1,11,0,2,0)
  ShowMessageFace("monk_sucubuss_fc1",0,0,2,74)
  ShowMessage("【エルゼ】")
  ShowMessage("あはははっ……♪")
  ShowMessageFace("",0,0,2,75)
  ShowMessage("エルゼは陽気に歌って踊っている……")
  EndEventProcessing()
  0()
 EndIf()
 If(1,11,0,3,0)
  ShowMessageFace("monk_sucubuss_fc1",1,0,2,76)
  ShowMessage("【エルゼ】")
  ShowMessage("うふふっ……")
  355("interrupt_skill(3296)")
  EndEventProcessing()
  0()
 EndIf()
 If(1,11,0,4,0)
  ShowMessageFace("monk_sucubuss_fc1",0,0,2,77)
  ShowMessage("【エルゼ】")
  ShowMessage("これ、差し入れだからね！")
  ShowMessageFace("",0,0,2,78)
  ShowMessage("エルゼからの差し入れだ！")
  250(bytes(0x04,0x08,0x6f,0x3a,0x0c,0x52,0x50,0x47,0x3a,0x3a,0x53,0x45,0x08,0x3a,0x0a,0x40,0x6e,0x61,0x6d,0x65,0x49,0x22,0x0a,0x49,0x74,0x65,0x6d,0x31,0x06,0x3a,0x06,0x45,0x54,0x3a,0x0b,0x40,0x70,0x69,0x74,0x63,0x68,0x69,0x69,0x3a,0x0c,0x40,0x76,0x6f,0x6c,0x75,0x6d,0x65,0x69,0x55))
  ChangeInventory_Item(385,0,0,1)
  ShowMessageFace("",0,0,2,79)
  ShowMessage("「焼き鳥」を手に入れた！")
  EndEventProcessing()
  0()
 EndIf()
 If(1,11,0,5,0)
  ShowMessageFace("monk_sucubuss_fc1",0,0,2,80)
  ShowMessage("【エルゼ】")
  ShowMessage("ふんっ！！")
  355("interrupt_skill(3294)")
  EndEventProcessing()
  0()
 EndIf()
 0()
EndIf()
If(1,100,0,350,0)
 If(1,11,0,1,0)
  ShowMessageFace("monk_demon_fc1",0,0,2,81)
  ShowMessage("【アニー】")
  ShowMessage("こういうのも好きよ……")
  355("interrupt_skill(3295)")
  EndEventProcessing()
  0()
 EndIf()
 If(1,11,0,2,0)
  ShowMessageFace("monk_demon_fc1",2,0,2,82)
  ShowMessage("【アニー】")
  ShowMessage("いったん撤退するわ！")
  ShowMessageFace("",0,0,2,83)
  ShowMessage("アニーは逃げ出した！")
  ShowMessage("しかし道が分からず、すぐ戻ってきた……")
  EndEventProcessing()
  0()
 EndIf()
 If(1,11,0,3,0)
  ShowMessageFace("monk_demon_fc1",0,0,2,84)
  ShowMessage("【アニー】")
  ShowMessage("はっ！　せいっ！")
  ShowMessageFace("",0,0,2,85)
  ShowMessage("アニーはこっそり修行している……")
  EndEventProcessing()
  0()
 EndIf()
 If(1,11,0,4,0)
  ShowMessageFace("monk_demon_fc1",0,0,2,86)
  ShowMessage("【アニー】")
  ShowMessage("これ、差し入れよ。")
  ShowMessageFace("",0,0,2,87)
  ShowMessage("アニーからの差し入れだ！")
  250(bytes(0x04,0x08,0x6f,0x3a,0x0c,0x52,0x50,0x47,0x3a,0x3a,0x53,0x45,0x08,0x3a,0x0a,0x40,0x6e,0x61,0x6d,0x65,0x49,0x22,0x0a,0x49,0x74,0x65,0x6d,0x31,0x06,0x3a,0x06,0x45,0x54,0x3a,0x0b,0x40,0x70,0x69,0x74,0x63,0x68,0x69,0x69,0x3a,0x0c,0x40,0x76,0x6f,0x6c,0x75,0x6d,0x65,0x69,0x55))
  ChangeInventory_Item(393,0,0,1)
  ShowMessageFace("",0,0,2,88)
  ShowMessage("「グラタン」を手に入れた！")
  EndEventProcessing()
  0()
 EndIf()
 If(1,11,0,5,0)
  ShowMessageFace("monk_demon_fc1",0,0,2,89)
  ShowMessage("【アニー】")
  ShowMessage("はぁっ！")
  355("interrupt_skill(3294)")
  EndEventProcessing()
  0()
 EndIf()
 0()
EndIf()
0()
